…
```r
### tune
lambda_grid <- grid_regular(penalty(), levels = 40)

set.seed(123)
review_folds <- bootstraps(review_train, strata = reviews.doRecommend)
review_folds
```

```
## # Bootstrap sampling using stratification 
## # A tibble: 25 × 2
##    splits              id         
##    <list>              <chr>      
##  1 <split [7676/2823]> Bootstrap01
##  2 <split [7676/2814]> Bootstrap02
##  3 <split [7676/2793]> Bootstrap03
##  4 <split [7676/2810]> Bootstrap04
##  5 <split [7676/2822]> Bootstrap05
##  6 <split [7676/2811]> Bootstrap06
##  7 <split [7676/2798]> Bootstrap07
##  8 <split [7676/2834]> Bootstrap08
##  9 <split [7676/2874]> Bootstrap09
## 10 <split [7676/2889]> Bootstrap10
## # … with 15 more rows
```
…
# Results

First, I will collect metrics and then plot the results to see which metric produce better outcomes. While ppv has a lower scores, npv is promising but for here I will continue with roc_auc. 


```r
# Once we have our tuning results, we can examine them in detail.

lasso_grid %>%
        collect_metrics()
```

```
## # A tibble: 120 × 7
##     penalty .metric .estimator  mean     n  std_err .config              
##       <dbl> <chr>   <chr>      <dbl> <int>    <dbl> <chr>                
##  1 1   e-10 npv     binary     0.962    25 0.000660 Preprocessor1_Model01
##  2 1   e-10 ppv     binary     0.226    25 0.00599  Preprocessor1_Model01
##  3 1   e-10 roc_auc binary     0.766    25 0.00442  Preprocessor1_Model01
##  4 1.80e-10 npv     binary     0.962    25 0.000660 Preprocessor1_Model02
##  5 1.80e-10 ppv     binary     0.226    25 0.00599  Preprocessor1_Model02
##  6 1.80e-10 roc_auc binary     0.766    25 0.00442  Preprocessor1_Model02
##  7 3.26e-10 npv     binary     0.962    25 0.000660 Preprocessor1_Model03
##  8 3.26e-10 ppv     binary     0.226    25 0.00599  Preprocessor1_Model03
##  9 3.26e-10 roc_auc binary     0.766    25 0.00442  Preprocessor1_Model03
## 10 5.88e-10 npv     binary     0.962    25 0.000660 Preprocessor1_Model04
## # … with 110 more rows
```
…
